<?xml version="1.0" encoding="UTF-8" standalone="no"?>
<svg
   viewBox="0 0 595.2789 841.88576"
   id="templatemaker-cardbox"
   width="210mm"
   height="297mm"
   version="1.1"
   sodipodi:docname="box_throne.svg"
   xml:space="preserve"
   inkscape:version="1.2 (56b05e47e7, 2022-06-09, custom)"
   xmlns:inkscape="http://www.inkscape.org/namespaces/inkscape"
   xmlns:sodipodi="http://sodipodi.sourceforge.net/DTD/sodipodi-0.dtd"
   xmlns="http://www.w3.org/2000/svg"
   xmlns:svg="http://www.w3.org/2000/svg"
   xmlns:rdf="http://www.w3.org/1999/02/22-rdf-syntax-ns#"
   xmlns:cc="http://creativecommons.org/ns#"
   xmlns:dc="http://purl.org/dc/elements/1.1/"><sodipodi:namedview
     id="namedview248"
     pagecolor="#ffffff"
     bordercolor="#666666"
     borderopacity="1.0"
     inkscape:showpageshadow="2"
     inkscape:pageopacity="0.0"
     inkscape:pagecheckerboard="0"
     inkscape:deskcolor="#d1d1d1"
     inkscape:document-units="mm"
     showgrid="false"
     inkscape:zoom="1.2512252"
     inkscape:cx="484.32528"
     inkscape:cy="216.98732"
     inkscape:window-width="1920"
     inkscape:window-height="1008"
     inkscape:window-x="0"
     inkscape:window-y="36"
     inkscape:window-maximized="1"
     inkscape:current-layer="page2" /><title
     id="title198">Card Box</title><defs
     id="defs202"><style
       type="text/css"
       id="style200">
		text{  font-family:  -apple-system, BlinkMacSystemFont, &quot;Segoe UI&quot;, Roboto, Helvetica, Arial, sans-serif, &quot;Segoe UI Symbol&quot;; font-weight: 400; }
</style><style
       type="text/css"
       id="style343">
		text{  font-family:  -apple-system, BlinkMacSystemFont, &quot;Segoe UI&quot;, Roboto, Helvetica, Arial, sans-serif, &quot;Segoe UI Symbol&quot;; font-weight: 400; }
</style><style
       type="text/css"
       id="style471">
		text{  font-family:  -apple-system, BlinkMacSystemFont, &quot;Segoe UI&quot;, Roboto, Helvetica, Arial, sans-serif, &quot;Segoe UI Symbol&quot;; font-weight: 400; }
</style></defs><g
     id="page2"><g
       class="pagetext"
       font-size="10px"
       id="g210"
       style="stroke-width:1.04077;stroke-dasharray:none" /><g
       id="page2-labels"
       class="labels"
       fill="#75777a"
       stroke="none"
       style="stroke-width:1.04077;stroke-dasharray:none"><text
         dominant-baseline="middle"
         text-anchor="middle"
         font-family="sans-serif"
         font-size="11.3px"
         text-decoration="none"
         transform="translate(402.52,575.94)"
         id="text237"
         style="text-decoration:none;text-decoration-line:none;stroke-width:1.04077;stroke-dasharray:none" /><text
         dominant-baseline="middle"
         text-anchor="middle"
         font-family="sans-serif"
         font-size="11.3px"
         text-decoration="none"
         transform="translate(756.14,575.94)"
         id="text239"
         style="text-decoration:none;text-decoration-line:none;stroke-width:1.04077;stroke-dasharray:none" /><text
         dominant-baseline="middle"
         text-anchor="middle"
         font-family="sans-serif"
         font-size="11.3px"
         text-decoration="none"
         transform="rotate(180,378.78,66.865)"
         id="text241"
         style="text-decoration:none;text-decoration-line:none;stroke-width:1.04077;stroke-dasharray:none" /><text
         dominant-baseline="middle"
         text-anchor="middle"
         font-family="sans-serif"
         font-size="11.3px"
         text-decoration="none"
         transform="rotate(180,201.26,66.865)"
         id="text243"
         style="text-decoration:none;text-decoration-line:none;stroke-width:1.04077;stroke-dasharray:none" /></g><g
       id="page-fold-6"
       class="fold"
       fill="none"
       stroke="#00adee"
       stroke-width="0.75"
       transform="matrix(0.99999815,0,0,0.99999815,-6.2144707e-6,0.888669)"
       style="stroke:#d5d5d5;stroke-opacity:1;stroke-width:0.46771999;stroke-dasharray:none"><path
         id="page-fold-hor-1"
         d="m 85.04,727.61 h 425.2"
         style="stroke:#d5d5d5;stroke-opacity:1;stroke-width:0.46771999;stroke-dasharray:none" /><path
         id="page-fold-hor-2"
         d="M 510.24,424.31 H 85.04"
         style="stroke:#d5d5d5;stroke-opacity:1;stroke-width:0.46771999;stroke-dasharray:none" /><path
         id="page-fold-glue-hor-left"
         d="M 28.35,367.61 H 566.93"
         style="stroke:#d5d5d5;stroke-opacity:1;stroke-width:0.46771999;stroke-dasharray:none" /><path
         id="page-fold-glue-vert-left"
         d="M 566.93,367.61 V 64.31"
         style="stroke:#d5d5d5;stroke-opacity:1;stroke-width:0.46771999;stroke-dasharray:none" /><path
         id="page-fold-dust-r"
         d="M 566.93,64.31 H 510.24"
         style="stroke:#d5d5d5;stroke-opacity:1;stroke-width:0.46771999;stroke-dasharray:none" /><path
         id="page-fold-dust-l"
         d="M 85.04,64.31 H 28.35"
         style="stroke:#d5d5d5;stroke-opacity:1;stroke-width:0.46771999;stroke-dasharray:none" /><path
         id="page-fold-glue-vert-right"
         d="m 28.35,64.31 v 303.3"
         style="stroke:#d5d5d5;stroke-opacity:1;stroke-width:0.46771999;stroke-dasharray:none" /><path
         id="page-fold-ver-l"
         d="M 85.04,367.61 V 64.31"
         style="stroke:#d5d5d5;stroke-opacity:1;stroke-width:0.46771999;stroke-dasharray:none" /><path
         id="page-fold-ver-r"
         d="m 510.24,64.31 v 303.3"
         style="stroke:#d5d5d5;stroke-opacity:1;stroke-width:0.46771999;stroke-dasharray:none" /><path
         id="page-fold-tuck-fold"
         d="M 102.05,781.47 H 493.23"
         style="stroke:#d5d5d5;stroke-opacity:1;stroke-width:0.46771999;stroke-dasharray:none" /></g><g
       id="page"
       transform="matrix(0.99999815,0,0,0.99999815,-6.2144707e-6,0.888669)"><g
         class="pagetext"
         font-size="10px"
         id="g353" /><g
         id="page-fold"
         class="fold"
         fill="none"
         stroke="#00adee"
         stroke-width="0.75" /><g
         id="page-cut"
         class="cut"
         fill="none"
         stroke="#d41a5a"
         stroke-width="2"><path
           id="page-cut-tuck"
           d="m 85.04,784.31 h 14.17 l 2.84,-2.84"
           style="stroke:#333333;stroke-opacity:1;stroke-width:0.28346666;stroke-dasharray:none" /><path
           id="page-cut-tuck-slit2"
           d="m 493.23,781.47 2.83,2.84 h 14.18"
           style="stroke:#333333;stroke-opacity:1;stroke-width:0.28346666;stroke-dasharray:none" /><path
           id="page-cut-tuck-tuck"
           d="m 86.46,784.31 v 12.75 a 28.35,28.35 0 0 0 28.34,28.35 h 365.67 a 28.35,28.35 0 0 0 28.35,-28.35 v -12.75"
           style="stroke:#333333;stroke-opacity:1;stroke-width:0.28346666;stroke-dasharray:none" /><path
           id="page-cut-front-left"
           d="m 510.24,784.31 v -56.7 -303.3 -56.7"
           style="stroke:#333333;stroke-opacity:1;stroke-width:0.28346666;stroke-dasharray:none" /><path
           id="page-cut-left"
           d="m 510.24,367.61 h 1.41 l 5,28.35 h 50.28 v -28.35 -1.41 l 28.35,-5 V 70.72 l -28.35,-5 v -1.41"
           style="stroke:#333333;stroke-opacity:1;stroke-width:0.28346666;stroke-dasharray:none" /><path
           id="page-cut-north"
           d="m 566.93,64.31 -8.5,-8.51 -3.6,-41.1 h -28.77 l -8.74,32.6 -5.67,5.67 V 64.31 H 510.23 318.9 v 0 a 5.31,5.31 0 0 0 -5.32,5.31 v 0 0 a 15.94,15.94 0 0 1 -15.94,15.95 v 0 A 15.94,15.94 0 0 1 281.69,69.62 v 0 0 a 5.31,5.31 0 0 0 -5.31,-5.31 v 0 H 85.04 83.62 V 52.97 L 77.95,47.3 69.22,14.7 H 40.44 l -3.59,41.1 -8.51,8.51"
           style="stroke:#333333;stroke-opacity:1;stroke-width:0.28346666;stroke-dasharray:none" /><path
           id="page-cut-right"
           d="m 28.35,64.31 v 1.41 L 0,70.72 V 361.2 l 28.35,5 v 1.41 28.35 h 50.27 l 5,-28.35 h 1.42"
           style="stroke:#333333;stroke-opacity:1;stroke-width:0.28346666;stroke-dasharray:none" /><path
           id="page-cut-front-right"
           d="m 85.04,367.61 v 56.7 303.3 56.7"
           style="stroke:#333333;stroke-opacity:1;stroke-width:0.28346666;stroke-dasharray:none" /></g><g
         id="page-labels"
         class="labels"
         fill="#75777a"
         stroke="none"><text
           dominant-baseline="middle"
           text-anchor="middle"
           font-family="sans-serif"
           font-size="11.3px"
           text-decoration="none"
           transform="rotate(180,269.645,26.485)"
           id="text375"
           style="text-decoration:none;text-decoration-line:none" /><text
           dominant-baseline="middle"
           text-anchor="middle"
           font-family="sans-serif"
           font-size="11.3px"
           text-decoration="none"
           transform="rotate(180,28.345,26.485)"
           id="text377"
           style="text-decoration:none;text-decoration-line:none" /></g><g
         id="g2560"
         transform="matrix(0,1.0000019,-1.0000019,0,920.38097,-111.92258)"><circle
           style="fill:none;fill-opacity:0.195403;stroke:#b2b2b2;stroke-width:0.566932;stroke-linecap:round;stroke-dasharray:none;stroke-opacity:1;paint-order:stroke markers fill;stop-color:#000000"
           id="circle2556"
           cx="327.88196"
           cy="622.03479"
           r="93.462357" /><path
           style="fill:#b2b2b2;fill-opacity:1;stroke-width:0.999998"
           d="m 397.56249,657.0675 c -0.4637,0.40782 -1.65122,0.97773 -2.8652,1.37505 -0.84277,0.27585 -1.40705,0.315 -3.20446,0.2224 -2.34671,-0.12091 -3.32512,-0.34124 -5.38604,-1.21292 -2.40749,-1.01826 -4.55851,-2.27844 -7.82266,-4.58294 -3.54477,-2.50262 -8.18111,-7.57325 -11.22529,-12.27677 -3.95863,-6.11645 -7.08915,-12.60682 -10.07421,-20.88644 -0.85486,-2.3711 -1.26649,-3.62916 -2.52866,-7.7284 -1.25806,-4.08589 -3.76819,-15.08668 -4.33873,-19.01477 -0.20714,-1.42609 -0.25563,-1.45975 -2.311,-1.60422 -8.06588,-0.56698 -18.96396,-2.54738 -26.73121,-4.85758 -4.78378,-1.42285 -10.66014,-3.62398 -13.62278,-5.10276 -0.25971,-0.12964 -0.4827,-0.14471 -0.56727,-0.0384 -0.2113,0.26577 0.0196,10.02064 0.2425,10.24287 0.12709,0.12673 0.78102,0.0376 1.97924,-0.27003 3.21014,-0.82394 5.74986,-1.08151 9.61209,-0.97482 3.50217,0.0967 5.41945,0.35408 8.10134,1.08741 2.20376,0.60257 5.77118,2.02094 7.35548,2.92445 0.57021,0.32519 1.43379,0.81508 1.91906,1.08866 1.56824,0.8841 4.698,3.32693 6.52309,5.09138 6.02753,5.82722 10.05446,13.44903 11.66468,22.07788 0.39347,2.10849 0.53421,7.44044 0.26869,10.17888 -0.96196,9.92094 -5.38653,18.86791 -12.23428,24.73903 -3.80802,3.26491 -8.00208,5.41077 -12.57094,6.43182 -1.03673,0.23169 -2.26669,0.52188 -2.73321,0.64487 -0.58259,0.15358 -3.23913,0.22806 -8.48241,0.23786 -4.19879,0.008 -8.00723,0.0822 -8.4632,0.16532 -0.89842,0.1637 -1.55708,0.41126 -3.34599,1.25764 -3.09358,1.46367 -4.09924,4.94888 -2.30533,7.98934 0.56027,0.94957 0.83607,0.83898 1.08687,-0.43578 0.64586,-3.28283 3.9362,-5.25661 7.16331,-4.29707 2.48437,0.73871 4.03414,2.76944 4.04625,5.30199 0.0101,2.12859 -1.14508,4.02051 -3.02791,4.95866 -1.682,0.83809 -6.17539,1.19347 -7.8776,0.62303 -2.24584,-0.75261 -4.25387,-2.16054 -5.51491,-3.86673 -1.55131,-2.09897 -2.11926,-3.92012 -2.11926,-6.79554 0,-2.22442 0.44727,-3.87849 1.54181,-5.70173 1.53484,-2.55671 5.2791,-4.85937 9.48532,-5.83332 1.30501,-0.30218 2.18819,-0.34226 6.56172,-0.29776 4.8309,0.0491 5.13426,0.031 6.88017,-0.41033 2.59967,-0.65722 3.46964,-0.97235 5.56668,-2.01644 2.23073,-1.11065 3.7067,-2.10178 5.57751,-3.74536 4.79924,-4.21633 8.20303,-10.40683 9.64187,-17.53577 0.37229,-1.84459 0.43886,-2.75779 0.44658,-6.12617 0.012,-5.21698 -0.55011,-8.35321 -2.28028,-12.72361 -1.29773,-3.27806 -2.21632,-4.772 -5.44739,-8.8594 -2.23875,-2.83207 -6.06907,-6.11947 -9.0465,-7.76422 -4.38656,-2.42314 -8.26982,-3.41418 -13.37642,-3.41373 -5.21769,5e-4 -7.90752,0.71645 -10.67228,2.8408 -1.70715,1.31172 -3.11594,3.35591 -3.56977,5.17981 -0.12253,0.49245 -0.28059,0.89536 -0.35124,0.89536 -0.12585,0 -0.0346,-40.74237 0.0916,-40.87959 0.0353,-0.0384 0.97998,0.76035 2.09927,1.775 4.21853,3.82412 9.40765,7.13461 15.13568,9.65605 0.46654,0.20536 1.27236,0.55961 1.79074,0.78722 4.01544,1.76315 11.06409,4.0672 16.11656,5.26817 6.32185,1.50271 14.25457,2.82092 20.03062,3.32855 0.80497,0.0707 1.50605,0.19737 1.55798,0.28138 0.0519,0.084 0.21768,1.08748 0.36837,2.22992 0.99591,7.55092 2.39469,14.56471 4.5533,22.83124 1.52745,5.84946 4.16431,13.58141 6.00151,17.59793 0.26144,0.57156 0.47535,1.08698 0.47535,1.14538 0,0.22747 2.44664,5.20971 3.52351,7.17515 1.65217,3.01542 1.92939,3.49386 2.53114,4.36847 0.29852,0.43389 0.54277,0.83433 0.54277,0.88987 0,0.15374 2.76207,4.00532 3.8666,5.39178 1.28061,1.60752 3.48535,3.99332 4.89855,5.30086 0.62204,0.57553 1.44215,1.34494 1.82246,1.70981 1.85634,1.78097 5.02845,3.36178 7.52227,3.7487 1.46824,0.22782 3.7682,0.1186 4.85709,-0.23063 0.76601,-0.24567 1.1393,0.0101 0.64684,0.44318 z m -66.0128,-14.27868 c -0.23632,0.14606 -0.25949,0.0956 -0.94785,-2.06542 -1.62808,-5.11113 -3.70267,-9.21776 -6.57053,-13.00636 -1.01883,-1.34593 -4.71659,-5.01729 -5.78374,-5.74247 -2.15131,-1.46189 -4.33297,-2.23579 -5.53649,-1.96396 -0.73917,0.16695 -2.16299,1.17166 -2.6335,1.85833 -0.93715,1.36768 -1.22557,2.64693 -1.23352,5.4711 -0.007,2.22163 0.0636,2.89237 0.4418,4.24121 0.63076,2.24972 0.65195,6.59332 0.0451,9.23639 -0.54519,2.3744 -1.49465,4.28168 -2.62811,5.27941 -2.58284,2.27349 -7.28549,2.91533 -10.98113,1.49874 -1.83181,-0.70216 -2.73642,-1.27563 -4.30937,-2.73192 -0.61205,-0.56664 -1.16509,-1.03026 -1.22899,-1.03026 -0.0639,0 -0.11618,3.30313 -0.11618,7.3403 0,4.75547 -0.0673,7.38186 -0.19105,7.45836 -0.10507,0.0649 -1.10175,-0.66758 -2.21485,-1.6278 -4.14789,-3.57826 -5.99746,-5.18523 -7.02331,-6.10219 -0.57994,-0.51836 -1.68091,-1.49384 -2.44662,-2.16772 -3.30707,-2.91049 -3.59363,-3.26361 -2.27568,-2.80417 0.86867,0.30282 2.97136,0.11153 3.87838,-0.35283 0.91295,-0.46742 2.04884,-1.54404 2.49555,-2.36534 0.30013,-0.55185 0.33909,-1.77263 0.45234,-14.17569 0.0682,-7.46452 0.11135,-19.21264 0.096,-26.10695 l -0.028,-12.53511 -0.5374,-1.60223 c -0.63642,-1.89749 -1.91287,-4.49801 -2.88897,-5.88571 -1.06155,-1.50918 -3.23008,-4.04515 -4.08425,-4.77629 -1.2546,-1.07389 -0.58941,-1.13097 0.9132,-0.0784 0.72571,0.50838 2.01336,1.37284 2.86142,1.92101 2.47579,1.6003 12.94098,8.65665 13.30226,8.9693 0.43339,0.37505 0.41801,0.60404 -0.0405,0.60404 -0.55527,0 -1.71398,1.113 -2.15861,2.07348 -0.38987,0.84216 -0.39226,0.96566 -0.33456,17.24755 0.0339,9.56075 0.13758,17.02079 0.24866,17.88967 0.59848,4.68166 2.4439,8.74046 4.7615,10.47238 1.1982,0.89541 2.27178,1.14104 3.93929,0.90126 1.59338,-0.22911 2.53301,-0.98699 3.41508,-2.75449 1.17668,-2.35787 1.80604,-6.37344 1.41659,-9.03842 -0.33735,-2.30843 -0.28448,-6.38294 0.10683,-8.234 0.49718,-2.35191 1.31841,-4.27983 2.27743,-5.34648 1.95567,-2.17519 5.31825,-3.58743 8.00533,-3.36216 1.20935,0.10139 3.24008,0.70797 4.3286,1.29295 4.27902,2.29961 7.97045,8.27445 10.6375,17.21757 0.49644,1.66461 1.07758,3.93417 1.23081,4.80669 0.082,0.46654 0.33392,1.86562 0.55996,3.10908 0.38091,2.09545 0.95508,6.07671 0.95508,6.62258 0,0.13006 -0.079,0.28528 -0.17548,0.34493 z"
           id="path2558" /></g></g><g
       id="page-labels-7"
       class="labels"
       fill="#75777a"
       stroke="none"
       transform="matrix(0.99999815,0,0,0.99999815,-6.2144707e-6,0.888669)"><text
         dominant-baseline="middle"
         text-anchor="middle"
         font-family="sans-serif"
         font-size="11.3px"
         text-decoration="none"
         transform="rotate(180,269.645,26.485)"
         id="text503"
         style="text-decoration:none;text-decoration-line:none" /><text
         dominant-baseline="middle"
         text-anchor="middle"
         font-family="sans-serif"
         font-size="11.3px"
         text-decoration="none"
         transform="rotate(180,28.345,26.485)"
         id="text505"
         style="text-decoration:none;text-decoration-line:none" /></g></g><metadata
     id="metadata1666"><rdf:RDF><cc:Work
         rdf:about=""><dc:title>Card Box</dc:title></cc:Work></rdf:RDF></metadata></svg>
